{"failedCount":1,"prefixedPath":"src\/test\/java\/users\/get\/get-user.feature","packageQualifiedName":"src.test.java.users.get.get-user","loopIndex":-1,"relativePath":"src\/test\/java\/users\/get\/get-user.feature","scenarioResults":[{"sectionIndex":3,"stepResults":[{"result":{"nanos":152712800,"millis":152.7128,"status":"passed"},"step":{"background":true,"line":4,"prefix":"*","index":0,"text":"url \"https:\/\/reqres.in\/\""}},{"result":{"nanos":713900,"millis":0.7139,"status":"passed"},"step":{"line":25,"prefix":"Given","index":0,"text":"path \"api\/users?page=1\""}},{"result":{"nanos":3275049400,"millis":3275.0494,"status":"passed"},"step":{"line":26,"prefix":"When","index":1,"text":"method get"},"stepLog":"08:49:22.950 request:\n1 > GET https:\/\/reqres.in\/api\/users%3Fpage=1\n1 > Host: reqres.in\n1 > Connection: Keep-Alive\n1 > User-Agent: Apache-HttpClient\/4.5.13 (Java\/1.8.0_202)\n1 > Accept-Encoding: gzip,deflate\n\n\n08:49:23.794 response time in milliseconds: 844\n1 < 200\n1 < Date: Tue, 03 Jan 2023 13:49:17 GMT\n1 < Content-Type: application\/json; charset=utf-8\n1 < Transfer-Encoding: chunked\n1 < Connection: keep-alive\n1 < X-Powered-By: Express\n1 < Access-Control-Allow-Origin: *\n1 < Etag: W\/\"2c1-N6Rqerxquq2kgQhL51EiSg4x0R8\"\n1 < Via: 1.1 vegur\n1 < Cache-Control: max-age=14400\n1 < CF-Cache-Status: MISS\n1 < Report-To: {\"endpoints\":[{\"url\":\"https:\\\/\\\/a.nel.cloudflare.com\\\/report\\\/v3?s=vZNdkK%2By%2FUnVxS8xAiC%2BXgl9PJAwFBm4asJdwun%2BzJidoHgmTFiil%2Bxzxw7kJdPDHVuSv5BlsfBJjFT2B868zmBSJrNKvx12kXcgjp3xuMX%2B3ldzM%2BCuHoo6fA%3D%3D\"}],\"group\":\"cf-nel\",\"max_age\":604800}\n1 < NEL: {\"success_fraction\":0,\"report_to\":\"cf-nel\",\"max_age\":604800}\n1 < Vary: Accept-Encoding\n1 < Server: cloudflare\n1 < CF-RAY: 783c32690c796db0-MIA\n{\"page\":1,\"per_page\":6,\"total\":12,\"total_pages\":2,\"data\":[{\"id\":1,\"name\":\"cerulean\",\"year\":2000,\"color\":\"#98B2D1\",\"pantone_value\":\"15-4020\"},{\"id\":2,\"name\":\"fuchsia rose\",\"year\":2001,\"color\":\"#C74375\",\"pantone_value\":\"17-2031\"},{\"id\":3,\"name\":\"true red\",\"year\":2002,\"color\":\"#BF1932\",\"pantone_value\":\"19-1664\"},{\"id\":4,\"name\":\"aqua sky\",\"year\":2003,\"color\":\"#7BC4C4\",\"pantone_value\":\"14-4811\"},{\"id\":5,\"name\":\"tigerlily\",\"year\":2004,\"color\":\"#E2583E\",\"pantone_value\":\"17-1456\"},{\"id\":6,\"name\":\"blue turquoise\",\"year\":2005,\"color\":\"#53B0AE\",\"pantone_value\":\"15-5217\"}],\"support\":{\"url\":\"https:\/\/reqres.in\/#support-heading\",\"text\":\"To keep ReqRes free, contributions towards server costs are appreciated!\"}}\n\n"},{"result":{"nanos":24300,"millis":0.0243,"status":"passed"},"step":{"line":27,"prefix":"Then","index":2,"text":"status 200"}},{"result":{"nanos":379964000,"millis":379.964,"status":"passed"},"step":{"line":28,"prefix":"And","index":3,"text":"print response.data[0].id"},"stepLog":"08:49:24.247 [print] 1 \n"},{"result":{"nanos":66089100,"errorMessage":"java.lang.Integer cannot be cast to java.lang.String\nsrc\/test\/java\/users\/get\/get-user.feature:29","millis":66.0891,"status":"failed"},"step":{"line":29,"prefix":"And","index":4,"text":"match response.data[0].id == \"#int\""},"stepLog":"08:49:24.309 src\/test\/java\/users\/get\/get-user.feature:29\nAnd match response.data[0].id == \"#int\"\njava.lang.Integer cannot be cast to java.lang.String\nsrc\/test\/java\/users\/get\/get-user.feature:29\n"}],"line":24,"description":"","durationMillis":3874.5535,"failed":true,"error":"java.lang.Integer cannot be cast to java.lang.String\nsrc\/test\/java\/users\/get\/get-user.feature:29","executorName":"main","name":"get the email from the list and validate the format of email","startTime":1672753760411,"refId":"[4:24]","endTime":1672753764309,"exampleIndex":-1}],"callDepth":0,"name":"Get user on page","description":"","resultDate":"2023-01-03 08:49:24 AM","durationMillis":3874.5535,"passedCount":0}