{"failedCount":0,"prefixedPath":"src\/test\/java\/users\/get\/get-user.feature","packageQualifiedName":"src.test.java.users.get.get-user","loopIndex":-1,"relativePath":"src\/test\/java\/users\/get\/get-user.feature","scenarioResults":[{"sectionIndex":3,"stepResults":[{"result":{"nanos":173109000,"millis":173.109,"status":"passed"},"step":{"background":true,"line":4,"prefix":"*","index":0,"text":"url \"https:\/\/reqres.in\/\""}},{"result":{"nanos":864100,"millis":0.8641,"status":"passed"},"step":{"line":25,"prefix":"Given","index":0,"text":"path \"api\/users?page=1\""}},{"result":{"nanos":1429596800,"millis":1429.5968,"status":"passed"},"step":{"line":26,"prefix":"When","index":1,"text":"method get"},"stepLog":"08:50:38.299 request:\n1 > GET https:\/\/reqres.in\/api\/users%3Fpage=1\n1 > Host: reqres.in\n1 > Connection: Keep-Alive\n1 > User-Agent: Apache-HttpClient\/4.5.13 (Java\/1.8.0_202)\n1 > Accept-Encoding: gzip,deflate\n\n\n08:50:38.799 response time in milliseconds: 500\n1 < 200\n1 < Date: Tue, 03 Jan 2023 13:50:32 GMT\n1 < Content-Type: application\/json; charset=utf-8\n1 < Transfer-Encoding: chunked\n1 < Connection: keep-alive\n1 < X-Powered-By: Express\n1 < Access-Control-Allow-Origin: *\n1 < Etag: W\/\"2c1-N6Rqerxquq2kgQhL51EiSg4x0R8\"\n1 < Via: 1.1 vegur\n1 < Cache-Control: max-age=14400\n1 < CF-Cache-Status: HIT\n1 < Age: 75\n1 < Report-To: {\"endpoints\":[{\"url\":\"https:\\\/\\\/a.nel.cloudflare.com\\\/report\\\/v3?s=rVcjaQMadBz4SS94P%2FQI5PP9PP1aPrbzsDZ2nOxdWsiGBGgFzjYEd9B8NXgKOePB%2BFZyj2wfcNdCBxkHgmjJVQsae%2FbYj68EmTn1LJiiXC3tJ1907MqeBggVwA%3D%3D\"}],\"group\":\"cf-nel\",\"max_age\":604800}\n1 < NEL: {\"success_fraction\":0,\"report_to\":\"cf-nel\",\"max_age\":604800}\n1 < Vary: Accept-Encoding\n1 < Server: cloudflare\n1 < CF-RAY: 783c343f6fb3da77-MIA\n{\"page\":1,\"per_page\":6,\"total\":12,\"total_pages\":2,\"data\":[{\"id\":1,\"name\":\"cerulean\",\"year\":2000,\"color\":\"#98B2D1\",\"pantone_value\":\"15-4020\"},{\"id\":2,\"name\":\"fuchsia rose\",\"year\":2001,\"color\":\"#C74375\",\"pantone_value\":\"17-2031\"},{\"id\":3,\"name\":\"true red\",\"year\":2002,\"color\":\"#BF1932\",\"pantone_value\":\"19-1664\"},{\"id\":4,\"name\":\"aqua sky\",\"year\":2003,\"color\":\"#7BC4C4\",\"pantone_value\":\"14-4811\"},{\"id\":5,\"name\":\"tigerlily\",\"year\":2004,\"color\":\"#E2583E\",\"pantone_value\":\"17-1456\"},{\"id\":6,\"name\":\"blue turquoise\",\"year\":2005,\"color\":\"#53B0AE\",\"pantone_value\":\"15-5217\"}],\"support\":{\"url\":\"https:\/\/reqres.in\/#support-heading\",\"text\":\"To keep ReqRes free, contributions towards server costs are appreciated!\"}}\n\n"},{"result":{"nanos":24400,"millis":0.0244,"status":"passed"},"step":{"line":27,"prefix":"Then","index":2,"text":"status 200"}},{"result":{"nanos":347601500,"millis":347.6015,"status":"passed"},"step":{"line":28,"prefix":"And","index":3,"text":"print response.data[0].name"},"stepLog":"08:50:39.206 [print] cerulean \n"},{"result":{"nanos":39105300,"millis":39.1053,"status":"passed"},"step":{"line":29,"prefix":"And","index":4,"text":"match response.data[0].name == \"#string\""}}],"executorName":"main","line":24,"name":"get the email from the list and validate the format of email","description":"","durationMillis":1990.3011,"startTime":1672753837237,"failed":false,"refId":"[4:24]","endTime":1672753839253,"exampleIndex":-1}],"callDepth":0,"name":"Get user on page","description":"","resultDate":"2023-01-03 08:50:39 AM","durationMillis":1990.3011,"passedCount":1}