{"failedCount":1,"prefixedPath":"src\/test\/java\/users\/get\/get-user.feature","packageQualifiedName":"src.test.java.users.get.get-user","loopIndex":-1,"relativePath":"src\/test\/java\/users\/get\/get-user.feature","scenarioResults":[{"sectionIndex":3,"stepResults":[{"result":{"nanos":147761500,"millis":147.7615,"status":"passed"},"step":{"background":true,"line":4,"prefix":"*","index":0,"text":"url \"https:\/\/reqres.in\/\""}},{"result":{"nanos":856600,"millis":0.8566,"status":"passed"},"step":{"line":25,"prefix":"Given","index":0,"text":"path \"api\/users?page=1\""}},{"result":{"nanos":1667859100,"millis":1667.8591,"status":"passed"},"step":{"line":26,"prefix":"When","index":1,"text":"method get"},"stepLog":"08:47:56.230 request:\n1 > GET https:\/\/reqres.in\/api\/users%3Fpage=1\n1 > Host: reqres.in\n1 > Connection: Keep-Alive\n1 > User-Agent: Apache-HttpClient\/4.5.13 (Java\/1.8.0_202)\n1 > Accept-Encoding: gzip,deflate\n\n\n08:47:56.936 response time in milliseconds: 703\n1 < 200\n1 < Date: Tue, 03 Jan 2023 13:47:51 GMT\n1 < Content-Type: application\/json; charset=utf-8\n1 < Transfer-Encoding: chunked\n1 < Connection: keep-alive\n1 < X-Powered-By: Express\n1 < Access-Control-Allow-Origin: *\n1 < Etag: W\/\"2c1-N6Rqerxquq2kgQhL51EiSg4x0R8\"\n1 < Via: 1.1 vegur\n1 < Cache-Control: max-age=14400\n1 < CF-Cache-Status: MISS\n1 < Report-To: {\"endpoints\":[{\"url\":\"https:\\\/\\\/a.nel.cloudflare.com\\\/report\\\/v3?s=ER440En4fG7emZ%2BHEIPd%2Ftv6pVQ%2F5wO7Y6PUpGmH2f9Lpqew%2Fn70zN1zFCVjWAcJKPgIMOm4lP5r85N8q4tXIaZbx%2BURkXVXepvJ9rvvQW%2B0CezxrtHUlN9uiw%3D%3D\"}],\"group\":\"cf-nel\",\"max_age\":604800}\n1 < NEL: {\"success_fraction\":0,\"report_to\":\"cf-nel\",\"max_age\":604800}\n1 < Vary: Accept-Encoding\n1 < Server: cloudflare\n1 < CF-RAY: 783c304a196667cf-MIA\n{\"page\":1,\"per_page\":6,\"total\":12,\"total_pages\":2,\"data\":[{\"id\":1,\"name\":\"cerulean\",\"year\":2000,\"color\":\"#98B2D1\",\"pantone_value\":\"15-4020\"},{\"id\":2,\"name\":\"fuchsia rose\",\"year\":2001,\"color\":\"#C74375\",\"pantone_value\":\"17-2031\"},{\"id\":3,\"name\":\"true red\",\"year\":2002,\"color\":\"#BF1932\",\"pantone_value\":\"19-1664\"},{\"id\":4,\"name\":\"aqua sky\",\"year\":2003,\"color\":\"#7BC4C4\",\"pantone_value\":\"14-4811\"},{\"id\":5,\"name\":\"tigerlily\",\"year\":2004,\"color\":\"#E2583E\",\"pantone_value\":\"17-1456\"},{\"id\":6,\"name\":\"blue turquoise\",\"year\":2005,\"color\":\"#53B0AE\",\"pantone_value\":\"15-5217\"}],\"support\":{\"url\":\"https:\/\/reqres.in\/#support-heading\",\"text\":\"To keep ReqRes free, contributions towards server costs are appreciated!\"}}\n\n"},{"result":{"nanos":22300,"millis":0.0223,"status":"passed"},"step":{"line":27,"prefix":"Then","index":2,"text":"status 200"}},{"result":{"nanos":544801800,"millis":544.8018,"status":"passed"},"step":{"line":28,"prefix":"And","index":3,"text":"print response.data[0].email"},"stepLog":"08:47:57.604 [print] null \n"},{"result":{"nanos":78024400,"errorMessage":"match failed: EQUALS\n\nsrc\/test\/java\/users\/get\/get-user.feature:29","millis":78.0244,"status":"failed"},"step":{"line":29,"prefix":"And","index":4,"text":"match response.data[0].email == \"#string\""},"stepLog":"08:47:57.692 src\/test\/java\/users\/get\/get-user.feature:29\nAnd match response.data[0].email == \"#string\"\nmatch failed: EQUALS\n\nsrc\/test\/java\/users\/get\/get-user.feature:29\n"}],"line":24,"description":"","durationMillis":2439.3257,"failed":true,"error":"match failed: EQUALS\n\nsrc\/test\/java\/users\/get\/get-user.feature:29","executorName":"main","name":"get the email from the list and validate the format of email","startTime":1672753675220,"refId":"[4:24]","endTime":1672753677692,"exampleIndex":-1}],"callDepth":0,"name":"Get user on page","description":"","resultDate":"2023-01-03 08:47:57 AM","durationMillis":2439.3257,"passedCount":0}