{"failedCount":0,"prefixedPath":"src\/test\/java\/users\/get\/get-user.feature","packageQualifiedName":"src.test.java.users.get.get-user","loopIndex":-1,"relativePath":"src\/test\/java\/users\/get\/get-user.feature","scenarioResults":[{"sectionIndex":3,"stepResults":[{"result":{"nanos":137509600,"millis":137.5096,"status":"passed"},"step":{"background":true,"line":4,"prefix":"*","index":0,"text":"url \"https:\/\/reqres.in\/\""}},{"result":{"nanos":664900,"millis":0.6649,"status":"passed"},"step":{"line":25,"prefix":"Given","index":0,"text":"path \"api\/users?page=1\""}},{"result":{"nanos":1386220200,"millis":1386.2202,"status":"passed"},"step":{"line":26,"prefix":"When","index":1,"text":"method get"},"stepLog":"08:53:41.810 request:\n1 > GET https:\/\/reqres.in\/api\/users%3Fpage=1\n1 > Host: reqres.in\n1 > Connection: Keep-Alive\n1 > User-Agent: Apache-HttpClient\/4.5.13 (Java\/1.8.0_202)\n1 > Accept-Encoding: gzip,deflate\n\n\n08:53:42.310 response time in milliseconds: 485\n1 < 200\n1 < Date: Tue, 03 Jan 2023 13:53:36 GMT\n1 < Content-Type: application\/json; charset=utf-8\n1 < Transfer-Encoding: chunked\n1 < Connection: keep-alive\n1 < X-Powered-By: Express\n1 < Access-Control-Allow-Origin: *\n1 < Etag: W\/\"2c1-N6Rqerxquq2kgQhL51EiSg4x0R8\"\n1 < Via: 1.1 vegur\n1 < Cache-Control: max-age=14400\n1 < CF-Cache-Status: HIT\n1 < Age: 1018\n1 < Report-To: {\"endpoints\":[{\"url\":\"https:\\\/\\\/a.nel.cloudflare.com\\\/report\\\/v3?s=nxHrfqphOmqChWKo8NSPDgm3corXmUtZjNZ1qV8XiN2SZx3JGx8BZIScNRKrEsvpGfh2nIA1NSDKkzRgQge8rW3j9l4g7sDA9JG5UYEcj5KydkfhOClL5VX7Iw%3D%3D\"}],\"group\":\"cf-nel\",\"max_age\":604800}\n1 < NEL: {\"success_fraction\":0,\"report_to\":\"cf-nel\",\"max_age\":604800}\n1 < Vary: Accept-Encoding\n1 < Server: cloudflare\n1 < CF-RAY: 783c38ba4e82da63-MIA\n{\"page\":1,\"per_page\":6,\"total\":12,\"total_pages\":2,\"data\":[{\"id\":1,\"name\":\"cerulean\",\"year\":2000,\"color\":\"#98B2D1\",\"pantone_value\":\"15-4020\"},{\"id\":2,\"name\":\"fuchsia rose\",\"year\":2001,\"color\":\"#C74375\",\"pantone_value\":\"17-2031\"},{\"id\":3,\"name\":\"true red\",\"year\":2002,\"color\":\"#BF1932\",\"pantone_value\":\"19-1664\"},{\"id\":4,\"name\":\"aqua sky\",\"year\":2003,\"color\":\"#7BC4C4\",\"pantone_value\":\"14-4811\"},{\"id\":5,\"name\":\"tigerlily\",\"year\":2004,\"color\":\"#E2583E\",\"pantone_value\":\"17-1456\"},{\"id\":6,\"name\":\"blue turquoise\",\"year\":2005,\"color\":\"#53B0AE\",\"pantone_value\":\"15-5217\"}],\"support\":{\"url\":\"https:\/\/reqres.in\/#support-heading\",\"text\":\"To keep ReqRes free, contributions towards server costs are appreciated!\"}}\n\n"},{"result":{"nanos":33400,"millis":0.0334,"status":"passed"},"step":{"line":27,"prefix":"Then","index":2,"text":"status 200"}},{"result":{"nanos":96477900,"millis":96.4779,"status":"passed"},"step":{"line":28,"prefix":"And","index":3,"text":"match response.data[0].color == \"#string\""}}],"executorName":"main","line":24,"name":"get the email from the list and validate the format of email","description":"","durationMillis":1620.906,"startTime":1672754020857,"failed":false,"refId":"[4:24]","endTime":1672754022498,"exampleIndex":-1}],"callDepth":0,"name":"Get user on page","description":"","resultDate":"2023-01-03 08:53:42 AM","durationMillis":1620.906,"passedCount":1}